Bayesian Statistics and Functional Programming: Analysing .fit files in R
…
We want to transform this list of lists into a dataframe. The most straightforward way is to extract the elements of interest using the map function from purrr:

(activity_tibble <- activity %>%
  purrr::map_dfr(function(x) tibble(
    timestamp = readr::parse_datetime(as.character(x$timestamp)),
    latitude = x$position_lat,
    longitude = x$position_long,
    elevation = x$enhanced_altitude,
    heart_rate = x$heart_rate,
    cadence = x$cadence
    )))

# A tibble: 611 x 6
   timestamp           latitude longitude elevation heart_rate cadence
   <dttm>                 <int>     <int>     <dbl>      <int>   <int>
 1 2017-03-16 17:22:08   6.56e8 -19374352      88.8        137      79
 2 2017-03-16 17:22:09   6.56e8 -19375987      90.2        138      79
 3 2017-03-16 17:22:10   6.56e8 -19374810      81.2        138      80
 4 2017-03-16 17:22:15   6.56e8 -19372657      39.2        139      78
 5 2017-03-16 17:22:21   6.56e8 -19368861      54.2        140      79
 6 2017-03-16 17:22:26   6.56e8 -19365257      54.6        140      80
 7 2017-03-16 17:22:32   6.56e8 -19362723      65.4        138      79
 8 2017-03-16 17:22:33   6.56e8 -19361314      69          138      79
 9 2017-03-16 17:22:37   6.56e8 -19358357      98.8        135      79
10 2017-03-16 17:22:44   6.56e8 -19354267      97          135      80
#  with 601 more rows
…
(activity_tibble <- activity_tibble %>%
  mutate(
    time_diff_to_prev = as.numeric(difftime(timestamp, lag(timestamp, default = .$timestamp[1]))),
    cumtime = cumsum(time_diff_to_prev),
    dist_to_prev = c(0, sp::spDists(
      x = as.matrix(.[, c("longitude", "latitude")]),
      longlat = TRUE,
      segments = TRUE
    )),
    elevation_to_prev = elevation - lag(elevation),
    distance = cumsum(dist_to_prev)
    )) 

# A tibble: 611 x 11
   timestamp           latitude longitude elevation heart_rate cadence
   <dttm>                 <dbl>     <dbl>     <dbl>      <int>   <int>
 1 2017-03-16 17:22:08     55.0     -1.62      88.8        137      79
 2 2017-03-16 17:22:09     55.0     -1.62      90.2        138      79
 3 2017-03-16 17:22:10     55.0     -1.62      81.2        138      80
 4 2017-03-16 17:22:15     55.0     -1.62      39.2        139      78
 5 2017-03-16 17:22:21     55.0     -1.62      54.2        140      79
 6 2017-03-16 17:22:26     55.0     -1.62      54.6        140      80
 7 2017-03-16 17:22:32     55.0     -1.62      65.4        138      79
 8 2017-03-16 17:22:33     55.0     -1.62      69          138      79
 9 2017-03-16 17:22:37     55.0     -1.62      98.8        135      79
10 2017-03-16 17:22:44     55.0     -1.62      97          135      80
#  with 601 more rows, and 5 more variables:
#   time_diff_to_prev <dbl>, cumtime <dbl>, dist_to_prev <dbl>,
#   elevation_to_prev <dbl>, distance <dbl>
…
