Bayesian Inference and Functional Programming - Bayesian Survival Analysis: Exponential Model
…
\[p(y|x, \theta) = \prod_{i=1}^n  (\lambda e^{-\lambda y_i})^{\nu_i}(e^{-\lambda y_i})^{1-\nu_i}\]

For the following derivation assume that the model has no covariates and hence \(\lambda\) is a parameter of interest. If the prior for the hazard is \(\lambda \sim \textrm{Gamma}(\alpha, \beta)\) then the posterior for lambda is:

\[\begin{align}
p(\lambda|y, x) &= \frac{\beta^\alpha}{\Gamma(\alpha)}\lambda^{\alpha-1}e^{-\beta \lambda}\prod_{i=1}^n  (\lambda e^{-\lambda y_i})^{\nu_i}(e^{-\lambda y_i})^{1-\nu_i}, \\
&\propto \lambda^{(\alpha-1+\sum_{i=1}^n\nu_i)}e^{-\lambda(\beta + \sum_{i=1}^ny_i)}.
\end{align}\]

This can be recognised as a Gamma distribution with shape \(\alpha-\sum_{i=1}^n\nu_i\) and scale \(\beta + \sum_{i=1}^ny_i\).

To test this method, we will use the ovarian cancer data from the survival package. The ovarian cancer data contains the followup time, futime and censoring, fustat.

# A tibble: 26 × 2
   futime fustat
    <dbl>  <dbl>
 1     59      1
 2    115      1
 3    156      1
 4    421      0
 5    431      1
 6    448      0
 7    464      1
 8    475      1
 9    477      0
10    563      1
# … with 16 more rows
…
